{
    "AboutUs_Title": "Tentang kami",
    "Account_Button_ChangePassword": "Ganti kata sandi",
    "Account_Button_PayNow": "Bayar sekarang",
    "Account_Button_Profile": "Profil",
    "Account_Button_Queries": "pertanyaan",
    "Account_Button_Save": "Simpan",
    "Account_Button_Submit": "Menyerahkan",
    "Account_Button_Submit1": "Menyerahkan",
    "Account_Button_Submit2": "Menyerahkan",
    "Account_Button_Transactions": "transaksi",
    "Account_Label_Date": "Tanggal",
    "Account_Label_DateOfBirth": "Tanggal lahir",
    "Account_Label_Female": "Wanita",
    "Account_Label_Gender": "Jenis kelamin",
    "Account_Label_Male": "Pria",
    "Account_Label_Message": "pesan",
    "Account_Label_Message1": "pesan",
    "Account_Label_Message2": "pesan",
    "Account_Label_NotAvailable": "Tidak tersedia",
    "Account_Label_NotVerified": "Tidak diverifikasi",
    "Account_Label_SubmitQuery": "Kirim pertanyaan",
    "Account_Label_SubmitQuery1": "Menyerahkan pertanyaan",
    "Account_Label_Title": "judul",
    "Account_Label_TransactionDate": "Tanggal transaksi",
    "Account_Label_TransactionMessage": "pesan",
    "Account_Label_TransactionReference": "Referensi Transaksi",
    "Account_Label_VerificationMessage": "Kami telah mengirim email ke alamat email Anda dengan langkah-langkah untuk memverifikasi akun Anda.",
    "Account_Label_Verified": "Diverifikasi",
    "AccountQuery_Label_NoData": "Tidak ada pertanyaan yang diajukan, Anda dapat mengajukan kueri dengan mengklik ikon di atas.",
    "AccountTransaction_Label_NoData": "Saat ini tidak ada transaksi di akun Anda.",
    "AddClassifides_Button_Submit": "Menyerahkan persetujuan admin",
    "AddClassifides_Label_Images": "Gambar-gambar",
    "AddClassifides_Title": "Tambahkan Diklasifikasikan",
    "Administration_Title": "Pengelolaan",
    "AffiliatedClubs_Title": "Klub yang bekerjasama",
    "Alert_Button_Cancel": "Batal",
    "Alert_Button_CancelOrder": "Batalkan pesanan",
    "Alert_Button_CancelPay": "Batal Pembayaran",
    "Alert_Button_CancelRemove": "Tidak, Batal",
    "Alert_Button_Confirm": "memastikan",
    "Alert_Button_ConfirmRemove": "Ya, hapus",
    "Alert_Button_Continue": "lanjut",
    "Alert_Button_Later": "Kemudian",
    "Alert_Button_Login": "Masuk",
    "Alert_Button_No": "Tidak",
    "Alert_Button_NotNow": "Tidak sekarang",
    "Alert_Button_Ok": "Baik",
    "Alert_Button_PleaseCancel": "Ya, silahkan membatalkannya",
    "Alert_Button_Proceed": "Diproses",
    "Alert_Button_Remove": "hapus",
    "Alert_Button_ShowNow": "menunjukkan",
    "Alert_Button_TryAgain": "Coba lagi",
    "Alert_Button_Wait": "Tunggu",
    "Alert_Button_Yes": "Ya",
    "Alert_Error_Pay": "Silahkan masukkan jumlah untuk dibayarkan",
    "Alert_Placeholder_Pay": "Jumlah anda di sini",
    "Alert_Text_Bye": "Anda telah berhasil keluar.",
    "Alert_Text_CancelBooking": "Lanjutkan untuk membatalkan pendaftaran?",
    "Alert_Text_CancelOrder": "Anda masih bisa mengulang perintah dari tab order",
    "Alert_Text_CancelPay": "Anda masih bisa mengulangi Pembayaran dari tab Transaksi",
    "Alert_Text_CancelRegistration": "Apakah Anda yakin untuk membatalkan pendaftaran Anda untuk acara ini?",
    "Alert_Text_CancelTickets": "Apakah Anda ingin membatalkan pemesanan ini?",
    "Alert_Text_Cart": "Keranjang kosong",
    "Alert_Text_ClassifiedSubmission": "Klasifikasi Anda dikirimkan untuk persetujuan admin",
    "Alert_Text_ClassifiedUpdate": "Klasifikasi pembaharuan telah diajukan untuk persetujuan admin",
    "Alert_Text_ConfirmRemove": "Apakah Anda ingin menghapus item ini dari keranjang?",
    "Alert_Text_Connectivity": "Entah jaringan terlalu lambat atau kita tidak mampu mencapai server saat ini Silakan coba lagi nanti..",
    "Alert_Text_History": "Kami tidak dapat menemukan sejarah apapun",
    "Alert_Text_LeavingApp": "Anda akan dibawa ke situs induk untuk menyelesaikan waktu-ikat pesanan dari browser Anda",
    "Alert_Text_LeavingAppExt": "Anda akan dibawa ke link eksternal pada browser Anda",
    "Alert_Text_logout": "Anda masih bisa mengakses isi umum",
    "Alert_Text_MakeCall": "Membuat panggilan ke nomor ini?",
    "Alert_Text_MaxLimit": "Jumlah tiket yang tersedia",
    "Alert_Text_MaxLimit10": "kuantitas maksimum yang diizinkan adalah 10 unit.",
    "Alert_Text_MaxLimitNumber": "Jumlah tiket dibeli per acara",
    "Alert_Text_NoAddress": "Lanjutkan tanpa menyimpan alamat?",
    "Alert_Text_NoPlayers": "Menambahkan pemain untuk melanjutkan",
    "Alert_Text_Pay": "Masukkan jumlah untuk membayar",
    "Alert_Text_PriceConfirmation": "Harga jadi tiket Anda",
    "Alert_Text_Query": "Pertanyaan anda telah kami terima. Kami akan menghubungi Anda secepatnya",
    "Alert_Text_RegisterError13": "Maaf Anda harus setidaknya 13 tahun untuk mendaftar.",
    "Alert_Text_RegisterErrorTerm": "Silakan periksa syarat dan ketentuan.",
    "Alert_Text_RemoveClassified": "Apakah Anda yakin ingin menghapus klasifikasi ini?",
    "Alert_Text_Removed": "Item dihapus.",
    "Alert_Text_RemovedClassified": "Klasifikasi ini telah dihapus",
    "Alert_Text_scorecard": "Maksimal 4 pemain dapat ditambahkan ke kartu skor.",
    "Alert_Text_ScoreCardSaved": "Skor disimpan",
    "Alert_Text_ScoreHistory": "Kami tidak bisa menemukan sejarah kartu skor",
    "Alert_Text_ScoreSaved": "skor Disimpan",
    "Alert_Text_SendEmail": "Kirim email ke alamat ini?",
    "Alert_Text_Something": "Silakan coba lagi.",
    "Alert_Text_SubmitScore": "Kartu catatan angka sekali diajukan tidak dapat diedit. Lanjutkan untuk menyerahkan?",
    "Alert_Title_ActionRequired": "Diperlukan tindakan",
    "Alert_Title_AuthFailed": "Otentikasi gagal",
    "Alert_Title_Bye": "Selamat tinggal",
    "Alert_Title_CancelBooking": "Batal Pemesanan",
    "Alert_Title_CancelPay": "Membatalkan proses pembayaran?",
    "Alert_Title_CancelRegistration": "Batal Pendaftaran",
    "Alert_Title_CancelTickets": "Batal Tiket",
    "Alert_Title_Cart": "Keranjang saya",
    "Alert_Title_ConfirmAction": "memastikan tindakan",
    "Alert_Title_ConfirmRemove": "Konfirmasi",
    "Alert_Title_Connectivity": "Oops",
    "Alert_Title_Done": "Selesai",
    "Alert_Title_LeavingApp": "Meninggalkan aplikasi",
    "Alert_Title_Logout": "memastikan keluar",
    "Alert_Title_MaxLimit": "Batas maksimum dicapai",
    "Alert_Title_NoAddress": "Alamat tidak disimpan",
    "Alert_Title_NoPlayers": "Tidak ada pemain?",
    "Alert_Title_NoResponse": "Tidak ada respon yang dipilih",
    "Alert_Title_Notification": "Pemberitahuan",
    "Alert_Title_Pay": "Bayar sekarang",
    "Alert_Title_PriceConfirmation": "Harga akhir Konfirmasi",
    "Alert_Title_ProcessFail": "proses gagal",
    "Alert_Title_Relogin": "Silakan kembali masuk",
    "Alert_Title_RemoveClassified": "Hapus klasifikasi",
    "Alert_Title_Removed": "Dihapus",
    "Alert_Title_Something": "Ada yang salah",
    "Alert_Title_Sorry": "Maaf",
    "Alert_Title_SubmitScore": "Menyerahkan Skor akhir",
    "Alert_Title_Success": "Berhasil",
    "Alert_Title_ThankYou": "Terima kasih atas tanggapan Anda",
    "AllClassified_Title": "semua Diklasifikasikan",
    "BanquetsnConference_Title": "Perjamuan-perjamuan & Konferensi-konferensi",
    "Blog_Label_NoData": "Saat ini tidak ada blog yang diposting Watch this space for more!",
    "BlogDetai_Title": "Blog",
    "BlogDetail_Button_AddComment": "komentar",
    "BlogDetail_Button_Close": "Tutup",
    "BlogDetail_Button_Comment": "Komentar",
    "BlogDetail_Button_Submit": "Kirim Topik",
    "BlogDetail_Label_Add": "Tambahkan komentar",
    "BlogDetail_Text_Message": "Pesan",
    "Blogs_Button_comment": "Komentar",
    "Blogs_Label_comments": "komentar-komentar",
    "Blogs_Label_LastUpdated": "terakhir Diperbarui",
    "Blogs_Title": "Blog-blog",
    "Calender_label_NoData": "Tidak ada peristiwa dalam periode yang dipilih.",
    "ChangePassword_Button_Update": "Perbaharui",
    "ChangePassword_Text_ConfirmPassword": "memastikan kata sandi",
    "ChangePassword_Text_CurrentPassword": "kata sandi saat ini",
    "ChangePassword_Text_NewPassword": "kata sandi baru",
    "ChangePassword_Title": "Ganti kata sandi",
    "ClassifiedDetail_Button_Cancel": "Batal",
    "ClassifiedDetail_Button_comment": "Komentar",
    "ClassifiedDetail_Button_Submit": "Menyerahkan",
    "ClassifiedDetail_Label_Desciption": "Deskripsi",
    "ClassifiedDetail_Label_Message": "Pesan dari Admin",
    "ClassifiedDetail_Label_Title": "Judul",
    "ClassifiedDetails_Title": "Detil klasifikasi",
    "ClassifiedDetal_Label_AddPhoto": "Tambahkan Foto baru",
    "ClassifiedDetal_Label_AddPhoto2": "Tambahkan foto baru",
    "ClubInformation_Title": "Informasi klub",
    "ClubRules_Title": "aturan-aturan klub",
    "ClubStaff_Title": "staf klub",
    "Contact_Button_Submit": "Menyerahkan",
    "Contact_Label_ContactInfo": "informasi kontak",
    "Contact_Label_NoData": "Informasi kontak tidak tersedia",
    "Contact_Label_Send": "kirimkan kami email",
    "Contact_Label_SendDetail": "Gunakan formulir untuk mengirimkan pesan kepada kami",
    "Contact_Text_Email": "Email",
    "Contact_Text_Message": "pesan",
    "Contact_Text_Name": "Nama",
    "Contact_Text_Phone": "Telepon",
    "ContactUs_Title": "Hubungi kami",
    "Copyright_Label": "Dipersembahkan oleh",
    "Direction_East": "Timur",
    "Direction_EastNorthEast": "Timur-Timur Laut",
    "Direction_EastSouthEast": "Timur - Tenggara",
    "Direction_North": "Utara",
    "Direction_NorthEast": "Timur Laut",
    "Direction_NorthNorthEast": "Utara - Timur Laut",
    "Direction_NorthNorthWest": "Utara - Tenggara",
    "Direction_NorthWest": "Barat laut",
    "Direction_South": "Selatan",
    "Direction_SouthEast": "Tenggara",
    "Direction_SouthSouthEast": "Selatan - Tenggara",
    "Direction_SouthSouthWest": "South - Barat Daya",
    "Direction_SouthWest": "Barat daya",
    "Direction_West": "Barat",
    "Direction_WestNorthWest": "Barat - Barat Laut",
    "Direction_WestSouthWest": "Barat - Barat Daya",
    "DressCode_Title": "kode pakaian",
    "EditProfile_Title": "Ubah profil",
    "EnrolmentCriteria_Title": "Kriteria pendaftaran",
    "EventDetail_Button_Request": "Meminta tiket",
    "EventDetail_Label_NumberOfTickets": "Jumlah Tiket",
    "EventDetail_Label_SelectTicketType": "Pilih tipe Tiket",
    "EventDetail_Title": "Detil acara",
    "Events_Button_MyBookings": "Pemesanan saya",
    "Events_Label_NoData": "Saat ini tidak ada acara yang diposkan oleh klub. Nantikan!",
    "Events_Label_ScheduledNoData": "Tidak ada jadwal acara",
    "Events_Title": "semua Acara",
    "Facility_Button_MyBookings": "pemesanan saya",
    "Facility_Label_NoData": "Saat ini tidak ada fasilitas yang terdaftar oleh klub",
    "FacilityDetails_Title": "Detail fasilitas",
    "Find_Button_SendChatInvite": "kirim undangan obrolan",
    "Find_Label_Email": "Alamat email",
    "Find_Label_PhoneNumber": "Nomor telepon",
    "FindPeople_Title": "Cari Orang",
    "Fitness_Title": "kebugaran",
    "FoodnBeverages_Label_Beverages": "Minuman-minuman",
    "FoodnBeverages_Label_Desserts": "Makanan penutup",
    "FoodnBeverages_Label_Main": "Menu utama",
    "FoodnBeverages_Label_NoFood": "Saat ini tidak ada item menu makanan dan minuman untuk ditampilkan.",
    "FoodnBeverages_Label_Starters": "permulaan",
    "FoodnBeverages_Title": "Makanan & minuman",
    "Forgot_Button_Submit": "Menyerahkan",
    "Forgot_Text_Email": "email",
    "Forgot_Title": "Lupa kata sandi",
    "Forum_Title": "Forum",
    "ForumTopics_Label_AddTopic": "Tambahkan Topik",
    "ForumTopics_Label_Topic": "Topik",
    "ForumTopics_Title": "Topik-topik",
    "Gallery_Title": "Galeri",
    "GlofTournaments_Label_NoRegister": "Anda belum terdaftar untuk turnamen golf manapun",
    "GlofTournaments_Label_NoTournament": "Tidak ada Turnamen Dijadwalkan",
    "GolfCourse_Label_CourseRating": "Kursus Penilaian untuk kotak tee",
    "GolfCourse_Label_Deatails": "Detail kursus golf",
    "GolfCourse_Label_Holes": "Lubang-lubang",
    "GolfCourse_Label_In": "Dalam",
    "GolfCourse_Label_Index": "Pengenal",
    "GolfCourse_Label_Name": "nama",
    "GolfCourse_Label_NumOfHoles": "Jumlah Lubang",
    "GolfCourse_Label_NumOfTeeBoxes": "Jumlah kotak ikat",
    "GolfCourse_Label_Out": "Keluar",
    "GolfCourse_Label_Par": "oleh",
    "GolfCourse_Label_Rank": "Urutan",
    "GolfCourse_Label_SlopeRating": "Rating untuk kotak ikat",
    "GolfCourse_Label_Total": "Total",
    "GolfCourse_Title": "Kursus Golf",
    "GolfTournaments_Label_RegStatusApproved": "Admin Disetujui",
    "GolfTournaments_Label_RegStatusCancelled": "Pengguna Dibatalkan",
    "GolfTournaments_Label_RegStatusPending": "Menunggu",
    "GolfTournaments_Label_RegStatusRejected": "Admin Ditolak",
    "GolfTournaments_Label_StatusConcluded": "disimpulkan",
    "GolfTournaments_Label_StatusLive": "Langsung",
    "GolfTournaments_Label_StatusNot": "Tidak dimulai",
    "GolfTournaments_Title": "Turnamen golf",
    "GolfTournamentsDetails_Button_Register": "Daftar Sekarang",
    "GolfTournamentsDetails_Label_EventType": "Tipe acara",
    "GolfTournamentsDetails_Label_SelectEvent": "Pilih Jenis acara",
    "GolfTournamentsDetails_Label_TeeOffHole": "Lubang nomor tertentu",
    "GolfTournamentsDetails_Label_TeeOffTime": "Waktu tertentu",
    "GolfTournamentsDetails_Title": "Detail turnamen golf",
    "Handicap_Title": "Rintangan",
    "HealthnSpa_Title": "Kesehatan & spa",
    "History_Title": "Sejarah",
    "Home_Button_Login": "masuk",
    "Home_Button_Register": "Daftar",
    "Home_Title": "TeamGolf",
    "Label_Author": "Penulis",
    "Label_BookingStatus": "Status pemesanan",
    "Label_Comments": "Komentar",
    "Label_CreatedBy": "Dibuat oleh",
    "Label_CreatedOn": "Dibuat pada",
    "Label_Description": "deskripsi",
    "Label_EndDate": "Akhir tanggal",
    "Label_Ends": "berakhir",
    "Label_EndsOn": "berakhir Pada",
    "Label_Event": "Acara",
    "Label_LastUpdatedOn": "Terakhir Diperbarui Pada",
    "Label_Player": "Pemain",
    "Label_PostedBy": "Dikirim oleh",
    "Label_PostedOn": "Dikirim pada",
    "Label_Posts": "kiriman",
    "Label_Rank": "urutan",
    "Label_Score": "skor",
    "Label_Slot": "slot",
    "Label_StartDate": "tanggal mulai",
    "Label_Started": "mulai",
    "Label_Starts": "mulai",
    "Label_TeamSize": "Ukuran Team",
    "Label_TeeTime": "Waktu ikat",
    "Label_TeeTimeSlot": "slot waktu ikat",
    "Label_TicketDate": "tanggal mulai",
    "Label_TotalEvents": "Jumlah acara",
    "Launch_Button_Continue": "lanjut",
    "LiveScore_Title": "Skor saat ini",
    "LiveScorecard_Label_NoList": "Daftar fasilitas untuk kartu sangka langsung tidak tersedia",
    "LiveScorecard_Title": "Daftar kartu catatan saat ini",
    "LiveScorecardDetails_Title": "Detail Kartu catatan angka saat ini",
    "Location_Title": "Lokasi",
    "Login_Button_ForgotPassword": "Lupa kata sandi?",
    "Login_Button_Login": "masuk",
    "Login_Placeholder_Email": "email",
    "Login_Placeholder_Password": "Kata sandi",
    "Media_Button_ViewDetail": "Melihat rincian",
    "Media_Title": "Media",
    "MembershipOptions_Title": "Pilihan keanggotaan",
    "Menu_Button_AboutUs": "Tentang kami",
    "Menu_Button_AffiliatedClubs": "Klub-klub yang bekerjasama",
    "Menu_Button_AllClassifides": "semua Diklasifikasikan",
    "Menu_Button_AllEvents": "Semua acara",
    "Menu_Button_AllTournaments": "semua Turnamen",
    "Menu_Button_Banquate": "Perjamuan & Konferensi",
    "Menu_Button_Blogs": "Blog-blog",
    "Menu_Button_Calender": "Kalender",
    "Menu_Button_Classifides": "klasifikasi-klasifikasi",
    "Menu_Button_ClubInformation": "Informasi-informasi klub",
    "Menu_Button_ClubManagement": "pengelolaan klub",
    "Menu_Button_ClubRules": "Peraturan Klub",
    "Menu_Button_ClubStaff": "Staf Klub",
    "Menu_Button_Connect": "menghubungkan",
    "Menu_Button_ContactUs": "Hubungi kami",
    "Menu_Button_DressCode": "Kode pakaian",
    "Menu_Button_EnrolmentCriteria": "Kriteria pendaftaran",
    "Menu_Button_Events": "Acara-acara",
    "Menu_Button_Facilities": "Fasilitas",
    "Menu_Button_FindPeople": "Cari orang",
    "Menu_Button_FitnessFacilities": "kebugaran",
    "Menu_Button_FoodAndBeverage": "makanan dan minuman",
    "Menu_Button_Forums": "forum-forum",
    "Menu_Button_Gallery": "galeri",
    "Menu_Button_Golf": "Golf",
    "Menu_Button_Golfcourse": "Kursus golf",
    "Menu_Button_Handicap": "rintangan",
    "Menu_Button_Health": "kesehatan & spa",
    "Menu_Button_History": "sejarah",
    "Menu_Button_Home": "Rumah",
    "Menu_Button_Leaderboards": "Hasil dan Leaderboard",
    "Menu_Button_LiveScoreCards": "Kartu catatan saat ini",
    "Menu_Button_Login": "masuk",
    "Menu_Button_Logout": "Keluar",
    "Menu_Button_Management": "pengelolaan",
    "Menu_Button_Media": "media",
    "Menu_Button_MembershipOptions": "pilihan keanggotaan",
    "Menu_Button_MyAccount": "Akun saya",
    "Menu_Button_MyClassifides": "Klasifikasi-klasifikasi saya",
    "Menu_Button_MyEventsBooking": "Acara saya & Pemesanan",
    "Menu_Button_MyFacilityBookings": "Pemesanan saya",
    "Menu_Button_MyGolfTournaments": "Turnamen-turnamen golf saya",
    "Menu_Button_MyTournaments": "Turnamen-turnamen saya",
    "Menu_Button_News": "Berita",
    "Menu_Button_Notifications": "pemberitahuan-pemberitahuan",
    "Menu_Button_Offers": "Penawaran",
    "Menu_Button_Opinion": "Pendapat anggota",
    "Menu_Button_Others": "lainnya",
    "Menu_Button_PastGoverningBody": "pembawa kantor terdahulu",
    "Menu_Button_Polls": "Pemungutan secara online",
    "Menu_Button_PresentGoverningBody": "Hadir pembawa kantor dan panitia",
    "Menu_Button_President": "Pesan dari Presiden",
    "Menu_Button_Recreation": "Rekreasi",
    "Menu_Button_Report": "laporan-laporan",
    "Menu_Button_ReportIssue": "laporan Masalah",
    "Menu_Button_Results": "hasil",
    "Menu_Button_Room": "kamar-kamar",
    "Menu_Button_Salon": "Salon",
    "Menu_Button_ScoreCards": "Kartu catatan angka",
    "Menu_Button_Sponsors": "sponsor-sponsor",
    "Menu_Button_SportsFacilities": "Olahraga-Olahraga",
    "Menu_Button_SubDomain": "ganti Subdomain",
    "Menu_Button_Surveys": "Seurvei online",
    "Menu_Button_TeeTime": "waktu-ikat",
    "Menu_Button_TournamentListing": "Daftar turnamen",
    "Menu_Button_Tournaments": "turnamen",
    "Menu_Button_Weather": "Cuaca",
    "MyClassifides_Label_NoClassifides": "Tidak ada klasifikasi untuk ditunjukkan",
    "MyClassifides_Lable_PublishStatus": "Status publikasi terklasifikasi",
    "MyClassifides_Title": "Klasifikasi saya",
    "MyEvent_Label_TicketDate": "Tanggal Acara",
    "MyEvent_Label_TicketQuantity": "Kuantitas",
    "MyEvent_Label_TicketStatus": "Status",
    "MyEvent_Label_TicketType": "Jenis tiket",
    "MyEvents_Title": "Pemesanan acara saya",
    "MyFacility_Button_Submit": "Kirim Permintaan",
    "MyFacility_Button_Update": "Pembaharuan pemesanan",
    "MyFacility_Text_EndDate": "Tanggal akhir",
    "MyFacility_Text_EndTime": "Akhir waktu",
    "MyFacility_Text_Message": "pesan",
    "MyFacility_Text_Reply": "Balas Pesan",
    "MyFacility_Text_StartDate": "tanggal mulai",
    "MyFacility_Text_StartTime": "Waktu mulai",
    "MyFacilityBooking_Title": "fasilitas pemesanan saya",
    "MyFacilityBookingDetails_Label_NoData": "Anda belum membuat pemesanan apapun.",
    "MyFacilityBookingDetails_Title": "Detail Fasilitas pemesanan",
    "MyGolfTournaments_Title": "turnamen-turnamen golf saya",
    "MyTournaments_Title": "turnamen saya",
    "News_Label_NoNews": "Tidak ada berita untuk ditunjukkan",
    "News_Title": "berita",
    "Notifications_Label_NoData": "Saat ini tidak ada notifikasi yang diposkan oleh klub.",
    "Notifications_Title": "pemberitahuan-pemberitahuan",
    "Offers_Label_NoOffers": "Tidak ada penawaran untuk ditunjukkan",
    "Offers_Title": "penawaran",
    "OrderDetail_Label_Message": "Tidak dapat mengambil detail pesanan.",
    "Other_Title": "lain",
    "PastGoverningBody_Title": "Pembawa kantor terdahulu",
    "PhotoPicker_Button_Cancel": "Batal",
    "PhotoPicker_Button_Choose": "Pilih dari Foto",
    "PhotoPicker_Button_Dismiss": "Memberhentikan",
    "PhotoPicker_Button_Remove": "Hapus Foto",
    "PhotoPicker_Button_Take": "Memotret",
    "PhotoPicker_Message_Success": "Profil foto berhasil diperbarui.",
    "Poll_Label_Message": "Anda sudah mengirimkan respon untuk jajak pendapat ini.",
    "Poll_Title": "Pemilihan",
    "Polls_Label_NoData": "Saat ini tidak ada jajak pendapat yang sedang berjalan.",
    "Polls_Title": "jajak Pendapat",
    "PresentGoverningBody_Title": "Hadir pembawa kantor dan panitia",
    "PresidentMessage_Title": "Pesan Presiden",
    "ProfilePhoto_Text_Tap": "Ketuk untuk mengubah foto",
    "ProfilePhoto_Title": "Foto Profil",
    "Recreational_Title": "perekreasian",
    "Register_Button_Register": "Daftar",
    "Register_Buttton_Create": "Membuat akun",
    "Register_Text_CheckBox_Age": "Saya lebih tua dari 13 tahun.",
    "Register_Text_CheckBox_Terms": "Saya setuju dengan",
    "Register_Text_Confirm_Password": "Konfirmasi kata sandi",
    "Register_Text_DisplayName": "Nama tampilan",
    "Register_Text_Email": "email",
    "Register_Text_FirstName": "Nama depan",
    "Register_Text_Gender": "jenis kelamin",
    "Register_Text_LastName": "Nama akhir",
    "Register_Text_Membership": "Keanggotaan",
    "Register_Text_Password": "kata sandi",
    "Register_Text_Phone": "Telepon",
    "Register_Title": "Daftar",
    "RegistrationDetail_Label_EndDate": "Tanggal akhir turnamen",
    "RegistrationDetail_Label_RegisteredEvent": "Kegiatan terdaftar",
    "RegistrationDetail_Label_RegistrationDate": "tanggal registrasi",
    "RegistrationDetail_Label_RegistrationID": "Pendaftaran Id",
    "RegistrationDetail_Label_RegistrationStatus": "Status Pendaftaran",
    "RegistrationDetail_Label_StartDate": "Tanggal mulai turnamen",
    "RegistrationDetail_Label_TournamentStatus": "Status turnamen",
    "RegistrationDetails_Title": "Detail Pendaftaran",
    "Reply_Button_Close": "Tutup",
    "Reply_Button_Post": "posting Balasan",
    "Reply_Button_Submit": "Menyerahkan",
    "Reply_Label_Replies": "balasan",
    "Reply_Label_ReplyTo": "Balas Untuk",
    "Reply_Label_YourReply": "Balasan Anda",
    "Reply_Title": "Balasan",
    "Report_Button_Report": "Menyerahkan",
    "Report_Label_IssueDetail": "Pesan Anda",
    "Report_Label_Message": "Ya Anggota, Kami terus bekerja menuju memastikan layanan yang lebih baik dan memperkaya pengalaman klub Anda. Kami meminta Anda untuk berbagi saran Anda, pertanyaan dan komentar jika ada formulir di bawah ini. Kami menghargai waktu Anda dan pendapat.",
    "Report_Title": "Feedback Anggota",
    "RestaurentList_Label_NoData": "Saat ini tidak ada restoran yang terdaftar oleh klub. Segera Hadir!",
    "RestaurentList_Title": "Daftar Restaurant",
    "Results_Title": "hasil",
    "ResultsLeaderboard_Button_Show": "Tampilkan Klasemen Juara",
    "ResultsLeaderboard_Title": "Hasil & leaderboards",
    "Room_Title": "Kamar",
    "Salon_Title": "salon",
    "Scorecard_Button_Add": "Tambah",
    "Scorecard_Button_Back": "Kembali",
    "Scorecard_Button_Close": "Tutup",
    "Scorecard_Button_Front": "Depan",
    "Scorecard_Button_Save": "Simpan Skor",
    "Scorecard_Button_Submit": "Kirim scorecard",
    "Scorecard_Label_HoleView": "Pandangan lubang",
    "Scorecard_Text_AddScorecard": "Tambahkan Skor",
    "Scorecard_Text_TeeDate": "Tanggal ikat",
    "Scorecard_Text_TeeTime": "Mengikat waktu",
    "Scorecards_Title": "Kartu skor",
    "Search_Placeholder_Search": "Cari...",
    "SpinDialog_Cancel": "Membatalkan ...",
    "SpinDialog_LeaderBoard": "Memuat papan...",
    "SpinDialog_Loading": "Memuat...",
    "SpinDialog_Login": "Masuk di",
    "SpinDialog_Redirect": "Mengalihkan ...",
    "SpinDialog_Register": "Mendaftarkan ...",
    "SpinDialog_Request": "Meminta",
    "SpinDialog_Save": "Sedang menyimpan",
    "SpinDialog_Send": "Mengirim...",
    "SpinDialog_SendRequest": "Mengirim permintaan",
    "SpinDialog_Submit": "Mengirimkan …",
    "SpinDialog_Update": "Memperbarui ...",
    "SpinDialog_Upload": "Mengunggah ...",
    "SpinDialog_Wait": "Mohon tunggu",
    "SponsorDetails_Button_ViewMore": "Lihat lebih detail",
    "SponsorDetails_Title": "Detail sponsor",
    "Sponsors_Title": "sponsor-sponsor",
    "Sports_Title": "olahraga-olahraga",
    "Survey_Button_Vote": "Memilih",
    "Survey_Label_Message": "Anda sudah mengirimkan respon untuk survei ini.",
    "SurveyDetail_Title": "Detil survei",
    "Surveys_Label_NoData": "Saat ini tidak ada survei yang berjalan.",
    "Surveys_Title": "survei-survei",
    "Tournament_Label_NoData": "Saat ini tidak ada hasil turnamen yang akan ditampilkan.",
    "Tournaments_Title": "turnamen-turnamen",
    "ValidationError_AddressBlank": "Alamat tidak dapat dibiarkan kosong.",
    "ValidationError_Age": "Silakan pilih tanggal yang valid. Anda harus 13 tahun atau lebih.",
    "ValidationError_CityBlank": "Kota tidak dapat dibiarkan kosong.",
    "ValidationError_Comment": "Masukkan komentar Anda.",
    "ValidationError_CountryBlank": "Negara tidak dapat dibiarkan kosong.",
    "ValidationError_CurrentPassword": "Harap berikan kata sandi Anda saat ini",
    "ValidationError_DateBlank": "Tanggal tidak dapat dibiarkan kosong.",
    "ValidationError_DateOfBirth": "Harap berikan Tanggal Lahir Anda.",
    "ValidationError_DescriptionBlank": "Deskripsi tidak dapat dibiarkan kosong.",
    "ValidationError_DisplayName": "Nama Tampilan tersedia.",
    "ValidationError_DisplayNameShort": "Nama tampilan terlalu pendek. Sedikitnya 5 karakter yang dibutuhkan.",
    "ValidationError_Email": "Masukkan alamat email Anda.",
    "ValidationError_EmailBlank": "Email tidak dapat dibiarkan kosong.",
    "ValidationError_EndDate": "Cukup masukkan tanggal akhir.",
    "ValidationError_EndTimeLess": "waktu akhir tidak bisa kurang dari sekarang.",
    "ValidationError_EndDateLessThanStartDate": "Tanggal akhir tidak dapat lebih awal dari tanggal mulai.",
    "ValidationError_EndTimeLessThanStartTime": "Akhir Waktu tidak dapat lebih awal dari awal waktu.",
    "ValidationError_EventType": "Silakan pilih jenis acara.",
    "ValidationError_FirstnameBlank": "Nama pertama tidak dapat dibiarkan kosong.",
    "ValidationError_Handicap0": "Rintangan tidak boleh 0",
    "ValidationError_HandicapBlank": "Cacat tidak dapat dibiarkan kosong.",
    "ValidationError_InvalidEmail": "Masukkan alamat email yang valid.",
    "ValidationError_InvalidPhone": "Masukkan nomor telepon yang valid.",
    "ValidationError_InvalidTeeTime": "Pilih waktu ikat valid.",
    "ValidationError_IssueDescriptionBlank": "Masalah Deskripsi tidak dapat dibiarkan kosong.",
    "ValidationError_LastNameBlank": "Nama terakhir tidak dapat dibiarkan kosong.",
    "ValidationError_MembershipBlank": "Jumlah keanggotaan tidak dapat dibiarkan kosong.",
    "ValidationError_Message": "Silakan Masukkan pesan.",
    "ValidationError_MessageBlank": "Pesan tidak dapat dibiarkan kosong.",
    "ValidationError_NameBlank": "Nama tidak dapat dibiarkan kosong.",
    "ValidationError_NoConnectivity": "Tidak ada konektivitas. Tidak dapat memeriksa ketersediaan.",
    "ValidationError_NoConnectivity2": "Tidak ada konektivitas. Periksa koneksi internet Anda.",
    "ValidationError_NoDisplayName": "Nama Tampilan tidak tersedia.",
    "ValidationError_Password": "Masukkan kata sandi Anda.",
    "ValidationError_PasswordBlank": "Kata sandi tidak boleh kosong",
    "ValidationError_PasswordLowercase": "kata sandi harus mengandung setidaknya satu huruf kecill (a-z)",
    "ValidationError_PasswordMatch": "kata Sandi tidak cocok.",
    "ValidationError_PasswordNoChange": "Tidak ada perubahan kata sandi.",
    "ValidationError_PasswordNoMatch": "kata Sandi tidak cocok.",
    "ValidationError_PasswordNumber": "Sandi harus terdiri dari setidaknya satu angka (0-9)",
    "ValidationError_PasswordSixChar": "kata Sandi harus terdiri dari setidaknya enam karakter",
    "ValidationError_PasswordUppercase": "kata Sandi harus mengandung setidaknya satu huruf besar (AZ)",
    "ValidationError_PhoneBlank": "Nomor telepon tidak dapat dibiarkan kosong.",
    "ValidationError_PincodeBlank": "Pin Kode tidak dapat dibiarkan kosong.",
    "ValidationError_SelectOneOption": "Silakan pilih minimal satu pilihan.",
    "ValidationError_SelectOption": "Silakan pilih opsi.",
    "ValidationError_SelectPlayer": "Silakan pilih pemain untuk menandai skor.",
    "ValidationError_SomethingWrong": "Ada yang salah. Silakan coba lagi.",
    "ValidationError_StartDate": "Cukup masukkan tanggal mulai.",
    "ValidationError_StartdateToday": "Tanggal Mulai tidak bisa sama seperti hari ini.",
    "ValidationError_StartTimeLess": "Waktu mulai tidak bisa kurang dari sekarang.",
    "ValidationError_StateBlank": "Negara tidak dapat dibiarkan kosong.",
    "ValidationError_StratTime": "Pilih waktu mulai berlaku.",
    "ValidationError_Tilte": "Masukkan judul untuk topik Anda.",
    "ValidationError_TitleBlank": "Judul tidak dapat dibiarkan kosong.",
    "ValidationError_TopicDetail": "Masukkan rincian topik.",
    "ValidationError_ValidEndDate": "Silakan pilih tanggal akhir yang valid.",
    "ValidationError_ValidEndTime": "Pilih waktu akhir yang valid.",
    "ValidationError_ValidStartDate": "Pilih tanggal mulai berlaku.",
    "ValidationError_ValidStartTime": "Silahkan Pilih waktu mulai berlaku.",
    "ValidationError_ValidStratTime": "Silahkan Pilih waktu mulai berlaku.",
    "Weather_Label_Humidity": "Kelembaban",
    "Weather_Label_Pressure": "Tekanan",
    "Weather_Label_WindDirection": "Arah angin",
    "Weather_Label_WindSpeed": "Kecepatan angin",
    "Weather_Title": "Cuaca",
    "Calendar_Months": ["Januari", "Februari", "Maret", "April", "Mei", "Juni", "Juli", "Agustus", "September", "Oktober", "November", "Desember"],
    "Calendar_MonthsShort": ["Jan", "Feb", "Mar", "Apr", "May", "Jun", "Jul", "Aug", "Sep", "Oct", "Nov", "Dec"],
    "Calender_Days": ["Minggu", "Senin", "Selasa", "Rabu", "Kamis", "Jumat", "Sabtu"],
    "Calender_DaysShort": ["Minggu", "Senin", "Selasa", "Rabu", "Kamis", "Jumat", "Sabtu"],
    "Account_Button_Update_Details": "Perbarui",
    "Account_Label_QueryResponse": "Respon query",
    "Account_Label_Reference": "Referensi",
    "Account_Label_Response": "Response",
    "Account_Label_TransactionDate1": "Tanggal Transaksi",
    "Account_Label_TransactionReference1": "Transaksi Referensi",
    "Account_Title_QueryResponse": "Respon query",
    "Affiliation_Label_Nodata": "Informasi tentang Klub Terafiliasi tidak tersedia.",
    "AffiliationDetails_Label_Address": "Alamat",
    "AffiliationDetails_Title": "Detail afiliasi",
    "Alert_Payment_Fail": "kegagalan transaksi.",
    "Alert_Payment_Pay": "Bayar Aman sejumlah",
    "Alert_Payment_Success": "keberhasilan transaksi.",
    "Alert_Text_AddPromo": "Anda harus login untuk menambahkan promosi baru",
    "Alert_Text_AddScorecard": "Anda harus login untuk menambahkan scorecard ",
    "Alert_Text_AppUpdate": "Anda perlu logout dan login lagi untuk melanjutkan",
    "Alert_Text_LeavingAppPhone": "Anda akan dibawa ke dialer telepon pada perangkat Anda. Klik membatalkan untuk kembali ke App.",
    "Alert_Text_NewsFetchError": "Gagal Ambil diminta Detail Berita",
    "Alert_Text_PaymentFail": "Silakan coba lagi",
    "Alert_Text_PaymentFail1": "Maaf tidak dapat memproses pembayaran. Silakan coba lagi",
    "Alert_Text_PaymentIntegrationError": "Ada yang salah. Periksa apakah club anda telah mendaftar untuk integrasi pembayaran",
    "Alert_Text_PaymentSuccess": "Pembayaran Anda berhasil",
    "Alert_Text_SomethingWithPayment": "Ada yang salah. Periksa apakah club anda telah mendaftar untuk integrasi pembayaran",
    "Alert_Text_TicketSoldOut": "Tiket acara Habis Terjual",
    "Alert_Text_TimeOut": "Ups, Server tidak merespon dalam waktu Silakan coba lagi nanti..",
    "Alert_Title_AccountUpdated": "Informasi account telah diperbarui. Silakan kembali masuk",
    "Alert_Title_AddPlayer": "Menambah pemain untuk melanjutkan",
    "Alert_Title_AddPromo": "Belum masuk",
    "Alert_Title_AppUpdate": "Aplikasi Diperbarui",
    "Alert_Title_AvailableTickets": "Jumlah tiket TERSEDIA:",
    "Alert_Title_AvailableTickets1": ". Anda sudah",
    "Alert_Title_AvailableTickets2": "  di dalam kamu gerobak.",
    "Alert_Title_FinalPrice": "Harga tiket final Anda",
    "Alert_Title_PaymentFail": "Kegagalan pembayaran",
    "Alert_Title_PaymentSuccess": "Sukses pembayaran",
    "Alert_Title_PurchasedTickets": "Jumlah tiket dibeli per event:",
    "Alert_Title_ReAuthenticate": "Re-otentikasi diperlukan",
    "Alert_Title_TicketSoldOut": "Tiket acara Habis Terjual",
    "Alert_Title_TimeOut": "Waktu habis",
    "Alert_Title_Unsupported": "Didukung Versi",
    "Calendar_Title": "Kalender",
    "Calender_label_NextEvents": "Berikutnya Acara",
    "Coaches_Label_Nodata": "Daftar profesional yang saat ini tidak tersedia. Nantikan!",
    "EventBookingDetails_title": "saya detail acara pemesanan",
    "EventTickets_Label_Nodata": "Anda belum membuat pemesanan untuk acara apa pun.",
    "FacilityBooking_Label_Upadte": "Update Reservation",
    "FoodnBeverages_Label_RestaurantMenu": "Restaurant menu",
    "Forum_Label_NoData": "Tidak ada forum untuk ditampilkan",
    "GlofCoaches_Title": "  pelatih",
    "Golf_Label_Nodata": "Informasi pemasangan golf tidak tersedia.",
    "Label_Resend_Email": "Kirim ulang email",
    "Label_TapToClose": "Tekan lagi untuk menutup aplikasi seluler",
    "Label_Today": "Hari ini",
    "Media_Label_NoData": "Saat ini tidak ada feed untuk ditampilkan. Nantikan lebih banyak lagi!",
    "Menu_Button_Coaches": "pelatih",
    "Register_Label_MemberType": "Type Anggota",
    "Register_Option_Primary": "Primer Anggota",
    "Register_Option_Secondary": "Secondary / Dependent Anggota",
    "Register_Text_TermsAndConditions": "Syarat dan Ketentuan.",
    "Scorecard_Label_Nodata": "Saat ini tidak ada scorecard untuk dilihat.",
    "SpinDialog_PaymentInit": "Memulai Pembayaran",
    "SpinDialog_PaymentMake": "membuat Pembayaran",
    "SpinDialog_PaymentServerFetching": "Mengambil rincian server Pembayaran ...",
    "Sponsors_Label_NoData": "Saat ini tidak ada sponsor yang terdaftar.",
    "Tournament_Button_AddPlayer": "Tambahkan Pemain",
    "Tournament_Button_SelectSlot": "Pilih slot",
    "Tournament_Label_AvailableSlots": "Slot yang tersedia",
    "Tournament_Label_Category": "Kategori",
    "TournamentsDetails_Title": "Detail turnamen",
    "ValidationError_GenderBlank": "Jenis kelamin tidak dapat dibiarkan kosong.",
    "ValidationError_MembershipOption": "Silakan Pilih di sewa satu pilihan",
    "Alert_Title_Tee_Time": "Fasilitas pemesanan tee-Waktu yang tersedia",
    "Alert_Message_Tee_Time": "Fasilitas pemesanan waktu tee belum diatur. Silahkan hubungi klub untuk informasi lebih lanjut.",
    "Alert_Title_MakeCallAction": "Menelpon?",
    "Alert_Title_SendEmailAction": "Kirim Sebuah email?",
    "Alert_Title_openUrlAction": "Buka URL ini?",
    "ValidationError_ValidTicketQuantity": "Total tiket harus lebih besar dari 0",
    "ValidationError_TeeNotSelected": "Silakan pilih kategori valid",
    "Tournaments_Label_NoRegister": "Anda belum terdaftar untuk turnamen apapun",
    "ValidationError_CategoryNotSelected": "Please select a valid tee",
    "MyAccount_Label_LoginWarning": "Silahkan pilih tee yang valid",
    "MyAccount_Label_MembershipType": "Jenis keanggotaan",
    "MyAccount_Label_MemberType": "Jenis anggota",
    "MyAccount_Label_DocNum": "Doc Nomor",
    "MyAccount_Label_DocDate": "Doc Date",
    "MyAccount_Label_Particular": "Particulars",
    "MyAccount_Label_DrCr": "Debit / Kredit",
    "Golf_Label_MarkScore": "Mark Score Untuk",
    "Alert_Title_Livesocre_Url": "Klub untuk memungkinkan url",
    "Alert_Message_Livescore_Url": "Hidup Scoring URL tidak dikonfigurasi Silakan periksa dengan administrator klub.",
    "GolfCourse_Label_TeeBoxes": "Tee",
    "Scorecard_Text_Rounds": "Putaran",
    "ValidationError_RoundBlank": "Silakan pilih putaran valid",
    "Label_TeePlayers": "Pemain",
    "Directory_Button_Members": "Anggota",
    "Directory_Button_Conversation": "Pesan",
    "Directory_Button_Invites": "Undangan",
    "Menu_Button_ConnectPeople": "Hubungkan Dengan Members",
    "ConnectPeople_Title": "Hubungkan Dengan Anggota",
    "Menu_Button_EventsTickets": "Tiket acara",
    "ValidationError_SlotSelection": "Silakan pilih slot valid",
    "Tournament_Registration_Details_Not_Available": "Detail Pendaftaran Tournamennt tidak tersedia",
    "Tournament_No_Seats_Left": " Maaf Tidak Seats kiri.",
    "Tournament_Need_To_Login": "Anda harus login untuk mendaftar",
    "Label_LastUpdatedBy": "Terakhir Diperbaharui By",
    "Connect_Label_NoData": "Saat ini tidak ada anggota yang dapat terhubung.",
    "Member_Label_NoData Member": "Saat ini tidak ada anggota yang terdaftar di aplikasi ini",
    "Invite_Label_NoData": "Saat ini tidak ada undangan yang menunggu keputusan.",
    "GolfCourse_Label_Rules": "aturan",
    "MyAccount_Label_Dr": "Debit",
    "MyAccount_Label_Cr": "Kredit",
    "GolfCourse_Label_TeeBox": "Tee",
    "ValidationError_TeeNotSelected": "Pilih Tee valid",
    "Golf_Scorecard_Add_button": "Add New Scorecard",
    "Golf_Scorecard_Create_button": "Mulai Skor",
    "Golf_Scorecard_Label_TableView": "Lihat kartu",
    "Golf_Scorecard_Label_Submitted": "Dikirim",
    "GolfCourse_Label_TotalPar": "Jumlah Par",
    "Scorecard_Text_Start_From": "Mulai Dari",
    "Golf_Scorecard_Label_Progress": "In Progress",
    "Scorecard_Text_TeeTime": "Waktu",
    "Alert_Text_SubmitScore_HoleCheck": "Anda harus bermain minimal 9 lubang untuk menyerahkan scorecard",
    "Golf_Timesheet_Title": "Timesheet",
    "Menu_Button_Tournaments_caps": "Turnamen",
    "GolfCourse_Title_caps": "Kursus",
    "Facility_Button_MyBookings_caps": "Pemesanan",
    "Directory_Button_Invites_caps": "Undangan",
    "Directory_Button_Conversation_caps": "Pesan",
    "Menu_Button_Events_caps": "Acara-acara",
    "Menu_Button_Settings": "Pengaturan",
    "Settings_Button_PrivacySettings": "Privasi",
    "Settings_Title": "Pengaturan",
    "Handicap_Title_caps": "Rintangan",
    "FoodnBeverages_Title_caps": "F & B",
    "ContactUs_Title_caps": "Hubungi kami",
    "TeeTime_Title_caps": "Waktu ikat",
    "Menu_Button_Notifications_caps": "Pemberitahuan",
    "Menu_Button_News_caps": "Berita",
    "Account_Button_Transactions_caps": "transaksi",
    "Menu_Button_ScoreCards_caps": "SCORECARD",
    "Login_Text_CheckBox_Remember": "Ingat Saya",
    "Alert_Title_Reject_Invite": "Tolak Undangan",
    "Alert_Message_Reject_Invite": "Anda yakin ingin menolak permintaan sambung ini?",
    "Blogs_Title_caps": "Blog-blog",
    "EditPrivacy_Title": "Setelan Privasi",
    "Account_Button_Bills": "Bills",
    "MembershipInfo_Title": "Rincian Keanggotaan",
    "Account_Button_PayNow_Bills": "Bayar sekarang",
    "Menu_Button_Invite_Download": "Share App",
    "Label_Location": "Lokasi"
}