{
    "AboutUs_Title": "회사 소개",
    "Account_Button_ChangePassword": "비밀번호 변경",
    "Account_Button_PayNow": "지금 지불",
    "Account_Button_Profile": "프로필",
    "Account_Button_Queries": "조회",
    "Account_Button_Save": "저장",
    "Account_Button_Submit": "제출",
    "Account_Button_Submit1": "제출",
    "Account_Button_Submit2": "제출",
    "Account_Button_Transactions": "거래",
    "Account_Label_Date": "날짜",
    "Account_Label_DateOfBirth": "생년월일",
    "Account_Label_Female": "여성",
    "Account_Label_Gender": "성별",
    "Account_Label_Male": "남성",
    "Account_Label_Message": "메시지",
    "Account_Label_Message1": "메시지",
    "Account_Label_Message2": "메시지",
    "Account_Label_NotAvailable": "사용할 수 없음",
    "Account_Label_NotVerified": "검증되지 않음",
    "Account_Label_SubmitQuery": "쿼리 전송",
    "Account_Label_SubmitQuery1": "쿼리 전송",
    "Account_Label_Title": "제목",
    "Account_Label_TransactionDate": "거래 날짜",
    "Account_Label_TransactionMessage": "메시지",
    "Account_Label_TransactionReference": "거래 참조",
    "Account_Label_VerificationMessage": "우리는 귀하의 계정을 확인하는 단계에와 이메일 주소로 이메일을 보냈습니다.",
    "Account_Label_Verified": "검증 된",
    "AccountQuery_Label_NoData": "아직 생성 된 검색어가 없습니다. 위 아이콘을 클릭하여 검색어를 제출할 수 있습니다.",
    "AccountTransaction_Label_NoData": "현재 귀하의 계정에 거래가 없습니다.",
    "AddClassifides_Button_Submit": "관리자의 승인을 위해 제출",
    "AddClassifides_Label_Images": "이미지",
    "AddClassifides_Title": "분류 추가",
    "Administration_Title": "관리",
    "AffiliatedClubs_Title": "소속 클럽",
    "Alert_Button_Cancel": "취소",
    "Alert_Button_CancelOrder": "주문 취소",
    "Alert_Button_CancelPay": "결제 취소",
    "Alert_Button_CancelRemove": "아니, 취소",
    "Alert_Button_Confirm": "확인",
    "Alert_Button_ConfirmRemove": "예, 그것을 제거",
    "Alert_Button_Continue": "계속",
    "Alert_Button_Later": "나중에",
    "Alert_Button_Login": "로그인",
    "Alert_Button_No": "아니오",
    "Alert_Button_NotNow": "아니 지금",
    "Alert_Button_Ok": "확인",
    "Alert_Button_PleaseCancel": "예, 취소하세요",
    "Alert_Button_Proceed": "진행",
    "Alert_Button_Remove": "제거",
    "Alert_Button_ShowNow": "보여 주다",
    "Alert_Button_TryAgain": "다시 시도",
    "Alert_Button_Wait": "대기",
    "Alert_Button_Yes": "예",
    "Alert_Error_Pay": "지불 할 금액을 입력하십시오",
    "Alert_Placeholder_Pay": "여기 당신의 양",
    "Alert_Text_Bye": "성공적으로 로그 아웃했습니다.",
    "Alert_Text_CancelBooking": "등록을 취소 진행?",
    "Alert_Text_CancelOrder": "당신은 여전히 주문 탭 순서를 반복 할 수있다",
    "Alert_Text_CancelPay": "당신은 여전히 거래 탭에서 결제를 반복 수 있어요",
    "Alert_Text_CancelRegistration": "당신은 당신이이 이벤트에 대한 등록을 취소 하시겠습니까?",
    "Alert_Text_CancelTickets": "당신이 예약을 취소 하시겠습니까?",
    "Alert_Text_Cart": "장바구니가 비어 있습니다",
    "Alert_Text_ClassifiedSubmission": "당신은 관리자 승인을 위해 제출하여 분류",
    "Alert_Text_ClassifiedUpdate": "관리자의 승인을 위해 제출 classifed 업데이트",
    "Alert_Text_ConfirmRemove": "당신은 장바구니에서이 항목을 삭제 하시겠습니까?",
    "Alert_Text_Connectivity": "인터넷 연결을 확인하십시오.",
    "Alert_Text_History": "우리는 어떤 역사를 찾을 수 없습니다",
    "Alert_Text_LeavingApp": "당신은 당신의 브라우저에서 티 타임 예약을 완료 상위 웹 사이트로 이동합니다",
    "Alert_Text_LeavingAppExt": "페이지가 브라우저 또는 장치에 다른 응용 프로그램에서 열립니다 요청 앱으로 돌아가려면 취소를 클릭합니다..",
    "Alert_Text_logout": "당신은 여전히 일반적인 내용에 액세스 할 수 있습니다",
    "Alert_Text_MakeCall": "이 번호로 전화를 걸?",
    "Alert_Text_MaxLimit": "사용 가능한 티켓의 수",
    "Alert_Text_MaxLimit10": "허용 된 최대 수량 10 단위입니다.",
    "Alert_Text_MaxLimitNumber": "이벤트 당 구매 가능한 티켓의 수",
    "Alert_Text_NoAddress": "주소를 저장하지 않고 진행?",
    "Alert_Text_NoPlayers": "계속 선수를 추가",
    "Alert_Text_Pay": "지불 할 금액을 입력",
    "Alert_Text_PriceConfirmation": "귀하의 최종 티켓 가격입니다",
    "Alert_Text_Query": ". 귀하의 질의를받은 우리는 곧 당신을 다시 얻을 것이다",
    "Alert_Text_RegisterError13": "죄송합니다 당신은 등록 적어도 십삼년해야합니다.",
    "Alert_Text_RegisterErrorTerm": "이용 약관을 확인하시기 바랍니다.",
    "Alert_Text_RemoveClassified": "당신은 확실히 당신이 분류 제거 할?",
    "Alert_Text_Removed": "항목이 삭제되었습니다.",
    "Alert_Text_RemovedClassified": "이 제거 된 분류",
    "Alert_Text_scorecard": "4 플레이어의 최대 성과 기록표에 추가 할 수 있습니다",
    "Alert_Text_ScoreCardSaved": "점수 저장 됨",
    "Alert_Text_ScoreHistory": "우리는 스코어 카드 기록을 찾을 수 없습니다",
    "Alert_Text_ScoreSaved": "저장 점수",
    "Alert_Text_SendEmail": "이 주소로 이메일을 보내?",
    "Alert_Text_Something": "다시 시도하십시오.",
    "Alert_Text_SubmitScore": "스코어 카드는 한 번에 편집 할 수 없습니다 제출 제출 진행합니다.?",
    "Alert_Title_ActionRequired": "필요한 조치",
    "Alert_Title_AuthFailed": "인증 실패",
    "Alert_Title_Bye": "안녕",
    "Alert_Title_CancelBooking": "예약 취소",
    "Alert_Title_CancelPay": "결제 프로세스를 취소?",
    "Alert_Title_CancelRegistration": "등록 취소",
    "Alert_Title_CancelTickets": "티켓을 취소",
    "Alert_Title_Cart": "쇼핑 카트",
    "Alert_Title_ConfirmAction": "동작을 확인",
    "Alert_Title_ConfirmRemove": "확인",
    "Alert_Title_Connectivity": "어떤 연결이 없습니다",
    "Alert_Title_Done": "완료",
    "Alert_Title_LeavingApp": "외부 URL",
    "Alert_Title_Logout": "로그 아웃 확인",
    "Alert_Title_MaxLimit": "최대 한도에 도달",
    "Alert_Title_NoAddress": "저장되지 주소",
    "Alert_Title_NoPlayers": "아니 선수?",
    "Alert_Title_NoResponse": "아무 응답이 선택하지",
    "Alert_Title_Notification": "알림",
    "Alert_Title_Pay": "지금 지불",
    "Alert_Title_PriceConfirmation": "최종 가격 확인",
    "Alert_Title_ProcessFail": "프로세스 실패",
    "Alert_Title_Relogin": "-로그인 다시하십시오",
    "Alert_Title_RemoveClassified": "분류 제거하십시오",
    "Alert_Title_Removed": "삭제",
    "Alert_Title_Something": "문제가 발생했습니다",
    "Alert_Title_Sorry": "죄송합니다",
    "Alert_Title_SubmitScore": "최종 평가 점수를 제출",
    "Alert_Title_Success": "성공",
    "Alert_Title_ThankYou": "당신의 응답을 주셔서 감사합니다",
    "AllClassified_Title": "모든 분류",
    "BanquetsnConference_Title": "연회 및 회의",
    "Blog_Label_NoData": "현재 게시 된 블로그가 없습니다.이 공간을 더 살펴보십시오!",
    "BlogDetai_Title": "블로그",
    "BlogDetail_Button_AddComment": "코멘트",
    "BlogDetail_Button_Close": "닫기",
    "BlogDetail_Button_Comment": "코멘트",
    "BlogDetail_Button_Submit": "항목 제출",
    "BlogDetail_Label_Add": "코멘트 추가",
    "BlogDetail_Text_Message": "메시지",
    "Blogs_Button_comment": "코멘트",
    "Blogs_Label_comments": "댓글",
    "Blogs_Label_LastUpdated": "마지막 업데이트",
    "Blogs_Title": "블로그",
    "Calender_label_NoData": "선택한 기간에 이벤트가 없습니다.",
    "ChangePassword_Button_Update": "업데이트",
    "ChangePassword_Text_ConfirmPassword": "비밀번호 확인",
    "ChangePassword_Text_CurrentPassword": "현재 암호",
    "ChangePassword_Text_NewPassword": "새 암호",
    "ChangePassword_Title": "비밀번호 변경",
    "ClassifiedDetail_Button_Cancel": "취소",
    "ClassifiedDetail_Button_comment": "코멘트",
    "ClassifiedDetail_Button_Submit": "제출",
    "ClassifiedDetail_Label_Desciption": "설명",
    "ClassifiedDetail_Label_Message": "관리자의 메시지",
    "ClassifiedDetail_Label_Title": "제목",
    "ClassifiedDetails_Title": "세부 분류",
    "ClassifiedDetal_Label_AddPhoto": "새로운 사진을 추가",
    "ClassifiedDetal_Label_AddPhoto2": "새로운 사진을 추가",
    "ClubInformation_Title": "클럽 정보",
    "ClubRules_Title": "클럽 규칙",
    "ClubStaff_Title": "클럽 직원",
    "Contact_Button_Submit": "제출",
    "Contact_Label_ContactInfo": "연락처 정보",
    "Contact_Label_NoData": "연락처 정보를 사용할 수 없음",
    "Contact_Label_Send": "저희에게 이메일을 보내",
    "Contact_Label_SendDetail": "우리에게 메시지를 보내려면 양식을 사용",
    "Contact_Text_Email": "이메일",
    "Contact_Text_Message": "메시지",
    "Contact_Text_Name": "이름",
    "Contact_Text_Phone": "전화",
    "ContactUs_Title": "연락처",
    "Copyright_Label": "으로 강화",
    "Direction_East": "동쪽",
    "Direction_EastNorthEast": "한국 - 노스 이스트",
    "Direction_EastSouthEast": "동 - 동남",
    "Direction_North": "북",
    "Direction_NorthEast": "동북",
    "Direction_NorthNorthEast": "북 - 동북",
    "Direction_NorthNorthWest": "북 - 노스 웨스트",
    "Direction_NorthWest": "북서부",
    "Direction_South": "남쪽",
    "Direction_SouthEast": "동남",
    "Direction_SouthSouthEast": "남쪽 - 동남",
    "Direction_SouthSouthWest": "사우스 - 사우스 웨스트",
    "Direction_SouthWest": "사우스 웨스트",
    "Direction_West": "서쪽",
    "Direction_WestNorthWest": "웨스트 - 노스 웨스트",
    "Direction_WestSouthWest": "웨스트 - 사우스 웨스트",
    "DressCode_Title": "드레스 코드",
    "EditProfile_Title": "프로필 편집",
    "EnrolmentCriteria_Title": "등록 기준",
    "EventDetail_Button_Request": "요청 티켓",
    "EventDetail_Label_NumberOfTickets": "티켓의 수",
    "EventDetail_Label_SelectTicketType": "티켓 종류 선택",
    "EventDetail_Title": "이벤트 정보",
    "Events_Button_MyBookings": "나의 예약",
    "Events_Label_NoData": "현재 클럽에서 게시 한 이벤트가 없습니다. 계속 지켜봐주십시오!",
    "Events_Label_ScheduledNoData": "예정된 일정 없음",
    "Events_Title": "모든 이벤트",
    "Facility_Button_MyBookings": "나의 예약",
    "Facility_Label_NoData": "현재 클럽이 기재 한 시설이 없습니다.",
    "FacilityDetails_Title": "시설 세부 사항",
    "Find_Button_SendChatInvite": "초대 채팅 보내기",
    "Find_Label_Email": "이메일 주소",
    "Find_Label_PhoneNumber": "전화 번호",
    "FindPeople_Title": "멤버와 연결",
    "Fitness_Title": "적당",
    "FoodnBeverages_Label_Beverages": "음료",
    "FoodnBeverages_Label_Desserts": "디저트",
    "FoodnBeverages_Label_Main": "메인 코스",
    "FoodnBeverages_Label_NoFood": "어떤 식품 및 음료 메뉴 항목은 현재 표시가 없습니다.",
    "FoodnBeverages_Label_Starters": "기동",
    "FoodnBeverages_Title": "음식과 음료",
    "Forgot_Button_Submit": "제출",
    "Forgot_Text_Email": "이메일",
    "Forgot_Title": "비밀번호 분실",
    "FORUM_TITLE": "게시판",
    "ForumTopics_Label_AddTopic": "항목 추가",
    "ForumTopics_Label_Topic": "주제",
    "ForumTopics_Title": "항목",
    "Gallery_Title": "갤러리",
    "GlofTournaments_Label_NoRegister": "당신은 어떤 골프 대회에 등록하지 않았습니다",
    "GlofTournaments_Label_NoTournament": "어떤 대회는 예약되지",
    "GolfCourse_Label_CourseRating": "티 박스에 대한 과정 평가",
    "GolfCourse_Label_Deatails": "골프 코스 세부 사항",
    "GolfCourse_Label_Holes": "구멍",
    "GolfCourse_Label_In": "에서",
    "GolfCourse_Label_Index": "인덱스",
    "GolfCourse_Label_Name": "이름",
    "GolfCourse_Label_NumOfHoles": "구멍의 수",
    "GolfCourse_Label_NumOfTeeBoxes": "티 박스의 수",
    "GolfCourse_Label_Out": "아웃",
    "GolfCourse_Label_Par": "파",
    "GolfCourse_Label_Rank": "등급",
    "GolfCourse_Label_SlopeRating": "티 박스에 대한 경사 평가",
    "GolfCourse_Label_Total": "전체",
    "GolfCourse_Title": "골프 코스",
    "GolfTournaments_Label_RegStatusApproved": "관리자 승인",
    "GolfTournaments_Label_RegStatusCancelled": "사용자가 취소",
    "GolfTournaments_Label_RegStatusPending": "보류",
    "GolfTournaments_Label_RegStatusRejected": "관리가 거부",
    "GolfTournaments_Label_StatusConcluded": "체결",
    "GolfTournaments_Label_StatusLive": "라이브",
    "GolfTournaments_Label_StatusNot": "시작되지 않음",
    "GolfTournaments_Title": "골프 토너먼트",
    "GolfTournamentsDetails_Button_Register": "지금 등록",
    "GolfTournamentsDetails_Label_EventType": "이벤트 유형",
    "GolfTournamentsDetails_Label_SelectEvent": "이벤트 유형 선택",
    "GolfTournamentsDetails_Label_TeeOffHole": "구멍 수를 티 오프 ",
    "GolfTournamentsDetails_Label_TeeOffTime": "시간을 티 오프 ",
    "GolfTournamentsDetails_Title": "골프 대회 세부 사항",
    "Handicap_Title": "핸디캡",
    "HealthnSpa_Title": "건강 & 스파",
    "History_Title": "역사",
    "Home_Button_Login": "로그인",
    "Home_Button_Register": "등록",
    "Home_Title": "TeamGolf",
    "Label_Author": "저자",
    "Label_BookingStatus": "상태 예약",
    "Label_Comments": "댓글",
    "Label_CreatedBy": "작성자",
    "Label_CreatedOn": "에서 만든",
    "LABEL_DESCRIPTION": "설명",
    "Label_EndDate": "종료 날짜",
    "Label_Ends": "끝",
    "Label_EndsOn": "온을 종료합니다",
    "Label_Event": "이벤트",
    "Label_LastUpdatedOn": "최근에 업데이트",
    "Label_Player": "플레이어",
    "Label_PostedBy": "으로 게시",
    "Label_PostedOn": "에 배치",
    "Label_Posts": "게시물",
    "Label_Rank": "등급",
    "Label_Score": "점수",
    "Label_Slot": "슬롯 번호",
    "Label_StartDate": "시작 날짜",
    "Label_Started": "시작",
    "Label_Starts": "시작",
    "Label_TeamSize": "팀 크기",
    "Label_TeeTime": "티 타임",
    "Label_TeeTimeSlot": "티 타임 슬롯",
    "Label_TicketDate": "시작 날짜",
    "Label_TotalEvents": "총 이벤트",
    "Launch_Button_Continue": "계속",
    "LiveScore_Title": "라이브 스코어",
    "LiveScorecard_Label_NoList": "사용할 수 없음 라이브 스코어 카드 스포츠 시설 목록",
    "LiveScorecard_Title": "라이브 스코어 카드 목록",
    "LiveScorecardDetails_Title": "라이브 스코어 카드 세부 사항",
    "Location_Title": "위치",
    "Login_Button_ForgotPassword": "비밀 번호를 잊으셨습니까?",
    "Login_Button_Login": "로그인",
    "Login_Placeholder_Email": "이메일",
    "Login_Placeholder_Password": "비밀번호",
    "Media_Button_ViewDetail": "상세보기",
    "MEDIA_TITLE": "미디어",
    "MembershipOptions_Title": "회원 옵션",
    "Menu_Button_AboutUs": "회사 소개",
    "Menu_Button_AffiliatedClubs": "소속 클럽",
    "Menu_Button_AllClassifides": "모든 분류",
    "Menu_Button_AllEvents": "모든 이벤트",
    "Menu_Button_AllTournaments": "모든 대회",
    "Menu_Button_Banquate": "연회와 회의",
    "Menu_Button_Blogs": "블로그",
    "Menu_Button_Calender": "달력",
    "Menu_Button_Classifides": "분류",
    "Menu_Button_ClubInformation": "클럽 정보",
    "Menu_Button_ClubManagement": "클럽 관리",
    "Menu_Button_ClubRules": "클럽 규칙",
    "Menu_Button_ClubStaff": "클럽 직원",
    "Menu_Button_Connect": "연결",
    "Menu_Button_ContactUs": "연락처",
    "Menu_Button_DressCode": "드레스 코드",
    "Menu_Button_EnrolmentCriteria": "등록 기준",
    "Menu_Button_Events": "이벤트",
    "Menu_Button_Facilities": "시설",
    "Menu_Button_FindPeople": "멤버와 연결",
    "Menu_Button_FitnessFacilities": "적당",
    "Menu_Button_FoodAndBeverage": "음식과 음료",
    "Menu_Button_Forums": "포럼",
    "Menu_Button_Gallery": "갤러리",
    "Menu_Button_Golf": "골프",
    "Menu_Button_Golfcourse": "골프 코스",
    "Menu_Button_Handicap": "핸디캡",
    "Menu_Button_Health": "건강 & 스파",
    "Menu_Button_History": "역사",
    "Menu_Button_Home": "홈",
    "Menu_Button_Leaderboards": "결과 및 리더",
    "Menu_Button_LiveScoreCards": "라이브 스코어 카드",
    "Menu_Button_Login": "로그인",
    "Menu_Button_Logout": "로그 아웃",
    "Menu_Button_Management": "관리",
    "Menu_Button_Media": "미디어",
    "Menu_Button_MembershipOptions": "회원 옵션",
    "Menu_Button_MyAccount": "내 계정",
    "Menu_Button_MyClassifides": "내 분류",
    "Menu_Button_MyEventsBooking": "내 이벤트 예약",
    "Menu_Button_MyFacilityBookings": "내 예약",
    "Menu_Button_MyGolfTournaments": "내 골프 토너먼트",
    "Menu_Button_MyTournaments": "내 경기 대회",
    "Menu_Button_News": "뉴스",
    "Menu_Button_Notifications": "알림",
    "Menu_Button_Offers": "상품",
    "Menu_Button_Opinion": "회원 의견",
    "Menu_Button_Others": "기타",
    "Menu_Button_PastGoverningBody": "과거 사무실 소지자",
    "Menu_Button_Polls": "온라인 폴링",
    "Menu_Button_PresentGoverningBody": "현재 사무실 소지자 및위원회",
    "Menu_Button_President": "메시지에서 대통령",
    "Menu_Button_Recreation": "레크리에이션",
    "Menu_Button_Report": "보고서",
    "Menu_Button_ReportIssue": "보고서 문제",
    "Menu_Button_Results": "결과",
    "Menu_Button_Room": "룸",
    "Menu_Button_Salon": "헤어",
    "Menu_Button_ScoreCards": "스코어 카드",
    "Menu_Button_Sponsors": "후원",
    "Menu_Button_SportsFacilities": "스포츠",
    "Menu_Button_SubDomain": "변경 하위 도메인",
    "Menu_Button_Surveys": "온라인 설문 조사",
    "Menu_Button_TeeTime": "티 타임",
    "Menu_Button_TournamentListing": "토너먼트 목록",
    "Menu_Button_Tournaments": "토너먼트",
    "Menu_Button_Weather": "날씨",
    "MyClassifides_Label_NoClassifides": "어떤 분류가 표시되지하기",
    "MyClassifides_Lable_PublishStatus": "상태를 게시 분류",
    "MyClassifides_Title": "내 분류",
    "MyEvent_Label_TicketDate": "이벤트 날짜",
    "MyEvent_Label_TicketQuantity": "수량",
    "MyEvent_Label_TicketStatus": "상태",
    "MyEvent_Label_TicketType": "티켓 종류",
    "MyEvents_Title": "내 이벤트 예약",
    "MyFacility_Button_Submit": "요청 제출",
    "MyFacility_Button_Update": "업데이트 예약",
    "MyFacility_Text_EndDate": "종료 날짜",
    "MyFacility_Text_EndTime": "종료 시간",
    "MyFacility_Text_Message": "메시지",
    "MyFacility_Text_Reply": "메시지를 회신",
    "MyFacility_Text_StartDate": "시작 날짜",
    "MyFacility_Text_StartTime": "시작 시간",
    "MyFacilityBooking_Title": "내 시설 예약",
    "MyFacilityBookingDetails_Label_NoData": "아직 예약을하지 않았습니다.",
    "MyFacilityBookingDetails_Title": "내 시설 예약 상세",
    "MyGolfTournaments_Title": "내 골프 토너먼트",
    "MyTournaments_Title": "내 경기 대회",
    "News_Label_NoNews": "아니 뉴스 보여",
    "News_Title": "뉴스",
    "Notifications_Label_NoData": "현재 클럽에서 올린 알림이 없습니다.",
    "Notifications_Title": "알림",
    "Offers_Label_NoOffers": "없음 이벤트 보여",
    "Offers_Title": "상품",
    "OrderDetail_Label_Message": ". 주문 세부 정보를 가져올 수 없습니다",
    "Other_Title": "기타",
    "PastGoverningBody_Title": "과거 사무실 소지자",
    "PhotoPicker_Button_Cancel": "취소",
    "PhotoPicker_Button_Choose": "사진 선택",
    "PhotoPicker_Button_Dismiss": "해제",
    "PhotoPicker_Button_Remove": "사진 삭제",
    "PhotoPicker_Button_Take": "사진을 가지고",
    "PhotoPicker_Message_Success": "프로필 사진이 업데이트되었습니다.",
    "Poll_Label_Message": "당신은 이미이 설문 조사에 대한 응답을 제출했습니다.",
    "POLL_TITLE": "폴",
    "Polls_Label_NoData": "현재 투표가 실행되고 있지 않습니다.",
    "Polls_Title": "설문 조사",
    "PresentGoverningBody_Title": "현재 사무실 소지자",
    "PresidentMessage_Title": "대통령의 메시지",
    "ProfilePhoto_Text_Tap": "사진을 변경하려면 탭",
    "ProfilePhoto_Title": "프로필 사진",
    "Recreational_Title": "레크리에이션",
    "Register_Button_Register": "등록",
    "Register_Buttton_Create": "계정 만들기",
    "Register_Text_CheckBox_Age": "나는 13 세 이상입니다.",
    "Register_Text_CheckBox_Terms": "나는 동의",
    "Register_Text_Confirm_Password": "귀하의 비밀번호 확인",
    "Register_Text_DisplayName": "표시 이름",
    "Register_Text_Email": "이메일",
    "Register_Text_FirstName": "이름",
    "Register_Text_Gender": "성별",
    "Register_Text_LastName": "성",
    "Register_Text_Membership": "회원 번호",
    "Register_Text_Password": "암호 만들기",
    "Register_Text_Phone": "전화",
    "Register_Title": "등록",
    "RegistrationDetail_Label_EndDate": "대회 종료 날짜",
    "RegistrationDetail_Label_RegisteredEvent": "등록 된 이벤트",
    "RegistrationDetail_Label_RegistrationDate": "등록 날짜",
    "RegistrationDetail_Label_RegistrationID": "등록 이드",
    "RegistrationDetail_Label_RegistrationStatus": "등록 현황",
    "RegistrationDetail_Label_StartDate": "대회 시작 날짜",
    "RegistrationDetail_Label_TournamentStatus": "토너먼트 상태",
    "RegistrationDetails_Title": "등록 정보",
    "Reply_Button_Close": "닫기",
    "Reply_Button_Post": "포스트 답글",
    "Reply_Button_Submit": "제출",
    "Reply_Label_Replies": "회신",
    "Reply_Label_ReplyTo": "회신",
    "Reply_Label_YourReply": "회신",
    "Reply_Title": "회신",
    "Report_Button_Report": "제출",
    "Report_Label_IssueDetail": "귀하의 메시지",
    "Report_Label_Message": "친애하는 회원, 우리는보다 나은 서비스를 보장하고 클럽 경험을 풍부하게하기 위해 끊임없이 노력하고 있습니다. 아래 양식으로 제안, 질문 및 의견이 있으면 알려 주시기 바랍니다. 우리는 당신의 시간과 의견을 소중하게 생각합니다.",
    "REPORT_TITLE": "회원 피드백",
    "RestaurentList_Label_NoData": "현재 클럽이 열거 한 식당이 없습니다.",
    "RestaurentList_Title": "레스토랑 목록",
    "Results_Title": "결과",
    "ResultsLeaderboard_Button_Show": "표시는 리더 보드",
    "ResultsLeaderboard_Title": "결과 및 리더",
    "Room_Title": "룸",
    "Salon_Title": "헤어",
    "Scorecard_Button_Add": "추가",
    "Scorecard_Button_Back": "위로",
    "Scorecard_Button_Close": "닫기",
    "Scorecard_Button_Front": "앞",
    "Scorecard_Button_Save": "점수 저장",
    "Scorecard_Button_Submit": "스코어 카드 제출",
    "Scorecard_Label_HoleView": "홀보기",
    "Scorecard_Text_AddScorecard": "스코어 카드 추가",
    "Scorecard_Text_TeeDate": "티 날짜",
    "Scorecard_Text_TeeTime": "티 타임",
    "Scorecards_Title": "카드 점수",
    "Search_Placeholder_Search": "검색 ...",
    "SpinDialog_Cancel": "취소 ...",
    "SpinDialog_LeaderBoard": "로드 리더 ...",
    "SpinDialog_Loading": "로드 중 ...",
    "SpinDialog_Login": "로그 기록에 ...",
    "SpinDialog_Redirect": "리디렉션 ...",
    "SpinDialog_Register": "등록 ...",
    "SpinDialog_Request": "요청 ...",
    "SpinDialog_Save": "저장 ...",
    "SpinDialog_Send": "보내는 중 ...",
    "SpinDialog_SendRequest": "요청 전송",
    "SpinDialog_Submit": "제출 ...",
    "SpinDialog_Update": "업데이트 ...",
    "SpinDialog_Upload": "업로드 ...",
    "SpinDialog_Wait": "잠시 기다려주십시오",
    "SponsorDetails_Button_ViewMore": "보기 자세한 내용",
    "SponsorDetails_Title": "세부 스폰서",
    "Sponsors_Title": "후원",
    "Sports_Title": "스포츠",
    "Survey_Button_Vote": "투표",
    "Survey_Label_Message": "당신은 이미이 설문 조사에 대한 응답을 제출했습니다.",
    "SurveyDetail_Title": "조사의 세부 사항",
    "Surveys_Label_NoData": "현재 실행중인 설문 조사가 없습니다.",
    "Surveys_Title": "검사",
    "Tournament_Label_NoData": "현재 토너먼트 결과가 없습니다.",
    "Tournaments_Title": "토너먼트",
    "ValidationError_AddressBlank": "주소는 비워 둘 수 없습니다.",
    "ValidationError_Age": ". 유효한 날짜를 선택하세요 당신의 13 세 이상이어야합니다.",
    "ValidationError_CityBlank": "시는 비워 둘 수 없습니다.",
    "ValidationError_Comment": "귀하의 코멘트를 입력합니다.",
    "ValidationError_CountryBlank": "국가는 비워 둘 수 없습니다.",
    "ValidationError_CurrentPassword": "현재 비밀번호를 입력 해주세요",
    "ValidationError_DateBlank": "날짜는 비워 둘 수 없습니다.",
    "ValidationError_DateOfBirth": "생년월일을 입력하세요.",
    "ValidationError_DescriptionBlank": "설명은 비워 둘 수 없습니다.",
    "ValidationError_DisplayName": "가능한 표시 이름.",
    "ValidationError_DisplayNameShort": ". 표시 이름이 너무 짧 적어도 5 문자가 필요합니다.",
    "ValidationError_Email": "당신의 이메일 주소를 입력합니다.",
    "ValidationError_EmailBlank": "이메일은 비워 둘 수 없습니다.",
    "ValidationError_EndDate": "종료 날짜를 입력하십시오.",
    "ValidationError_EndDateLessThanStartDate": "종료 날짜는 시작 날짜보다 이전이 될 수 없습니다.",
    "ValidationError_EndTimeLess": "종료 시간은 지금보다 작을 수 없습니다.",
    "ValidationError_EndTimeLessThanStartTime": "종료 시간은 시작 시간보다 이전이 될 수 없습니다.",
    "ValidationError_EventType": "이벤트 유형을 선택하십시오.",
    "ValidationError_FirstnameBlank": "이름은 비워 둘 수 없습니다.",
    "ValidationError_Handicap0": "장애인은 0이 될 수 없습니다",
    "ValidationError_HandicapBlank": "장애인은 비워 둘 수 없습니다.",
    "ValidationError_InvalidEmail": "유효한 이메일 주소를 입력합니다.",
    "ValidationError_InvalidPhone": "유효한 전화 번호를 입력합니다.",
    "ValidationError_InvalidTeeTime": "유효한 티 시간을 선택하십시오.",
    "ValidationError_IssueDescriptionBlank": "문제 설명은 비워 둘 수 없습니다.",
    "ValidationError_LastNameBlank": "마지막 이름은 비워 둘 수 없습니다.",
    "ValidationError_MembershipBlank": "회원 번호는 비워 둘 수 없습니다.",
    "ValidationError_Message": "메시지를 입력하십시오.",
    "ValidationError_MessageBlank": "메시지는 비워 둘 수 없습니다.",
    "ValidationError_NameBlank": "이름은 비워 둘 수 없습니다.",
    "ValidationError_NoConnectivity": ".. 아니 연결 가능 여부를 확인 할 수 없습니다",
    "ValidationError_NoConnectivity2": "없음 연결 없음 인터넷 연결을 확인합니다..",
    "ValidationError_NoDisplayName": "가능한 표시 이름 없습니다.",
    "ValidationError_Password": "비밀번호를 입력합니다.",
    "ValidationError_PasswordBlank": "암호는 비워 둘 수 없습니다.",
    "ValidationError_PasswordLowercase": "비밀번호는 적어도 하나의 소문자 (AZ)를 포함해야",
    "ValidationError_PasswordMatch": "비밀번호가 일치.",
    "ValidationError_PasswordNoChange": "비밀번호 변경 없음.",
    "ValidationError_PasswordNoMatch": "비밀번호가 일치하지 않습니다.",
    "ValidationError_PasswordNumber": "비밀번호는 적어도 하나의 번호 (0-9)를 포함해야",
    "ValidationError_PasswordSixChar": "비밀번호는 적어도 6 문자를 포함해야합니다",
    "ValidationError_PasswordUppercase": "비밀번호는 적어도 하나의 대문자 (AZ)를 포함해야",
    "ValidationError_PhoneBlank": "전화 번호는 비워 둘 수 없습니다.",
    "ValidationError_PincodeBlank": "핀 코드는 비워 둘 수 없습니다.",
    "ValidationError_SelectOneOption": "이어야 하나의 옵션을 선택하십시오.",
    "ValidationError_SelectOption": "옵션을 선택하십시오.",
    "ValidationError_SelectPlayer": "에 대한 점수를 표시하는 플레이어를 선택하십시오.",
    "ValidationError_SomethingWrong": ". 문제가 발생했습니다 다시 시도하십시오.",
    "ValidationError_StartDate": "시작 날짜를 입력하십시오.",
    "ValidationError_StartdateToday": ". 오늘과 같은 동일 할 수 없습니다 시작 날짜",
    "ValidationError_StartTimeLess": ". 지금보다 작을 수 없습니다 시작 시간",
    "ValidationError_StateBlank": "국가는 비워 둘 수 없습니다.",
    "ValidationError_StratTime": "유효한 시작 시간을 선택하세요.",
    "ValidationError_Tilte": "주제의 제목을 입력합니다.",
    "ValidationError_TitleBlank": "제목은 비워 둘 수 없습니다.",
    "ValidationError_TopicDetail": "항목의 세부 정보를 입력합니다.",
    "ValidationError_ValidEndDate": "올바른 종료 날짜를 선택하십시오.",
    "ValidationError_ValidEndTime": "유효한 종료 시간을 선택하십시오.",
    "ValidationError_ValidStartDate": "유효 시작 날짜를 선택하십시오.",
    "ValidationError_ValidStartTime": "유효한 시작 시간을 선택하세요.",
    "ValidationError_ValidStratTime": "유효한 시작 시간을 선택하세요.",
    "Weather_Label_Humidity": "습도",
    "Weather_Label_Pressure": "압력",
    "Weather_Label_WindDirection": "바람의 방향",
    "Weather_Label_WindSpeed": "풍속",
    "Weather_Title": "날씨",
    "Calendar_Months": ["월", "4 월", "월", "6월 ", "7월 ", "8월 ", "9월 ", "10월 ", "11월 ", " 12 월"],
    "Calendar_MonthsShort": ["월", "2월", "월", "4월", "월", "6월", "7월", "8월", "SEP", "10월", "11월", " 12월 "],
    "Calender_Days": ["일요일", "월요일", "화요일", "수요일", "목요일", "금요일", "토요일"],
    "Calender_DaysShort": ["일", "월", "화요일", "수요일", "목요일", "금요일", "토요일"],
    "Account_Button_Update_Details": "업데이트",
    "Account_Label_QueryResponse": "질의 응답",
    "Account_Label_Reference": "참조",
    "Account_Label_Response": "응답",
    "Account_Label_TransactionDate1": "거래 날짜",
    "Account_Label_TransactionReference1": "거래 참조",
    "Account_Title_QueryResponse": "질의 응답",
    "Affiliation_Label_Nodata": "제휴 클럽에 관한 정보는 없습니다.",
    "AffiliationDetails_Label_Address": "주소",
    "AffiliationDetails_Title": "소속 세부 사항",
    "Alert_Payment_Fail": "트랜잭션 오류입니다.",
    "Alert_Payment_Pay": "의 안전하게 합을 지불",
    "Alert_Payment_Success": "거래 성공.",
    "Alert_Text_AddPromo": "당신은 새로운 분류 추가하려면 로그인해야합니다.",
    "Alert_Text_AddScorecard": "당신은 스코어 카드를 추가하려면 로그인해야합니다",
    "Alert_Text_AppUpdate": "당신은 로그 아웃하고 계속하려면 다시 로그인 할 필요가",
    "Alert_Text_LeavingAppPhone": "당신은 당신의 장치에 전화 걸기로 이동하게됩니다에 앱으로 돌아가려면 취소를 클릭합니다..",
    "Alert_Text_NewsFetchError": "요청 된 최신 뉴스를 가져 오지 못했습니다",
    "Alert_Text_PaymentFail": ". 지불을 처리하지 못했습니다 죄송합니다 다시 시도하십시오",
    "Alert_Text_PaymentFail1": "다시 시도하십시오",
    "Alert_Text_PaymentIntegrationError": "문제가 발생했습니다 클럽이 지불 통합에 가입했는지 확인하십시오.",
    "Alert_Text_PaymentSuccess": "귀하의 지불이 성공",
    "Alert_Text_SomethingWithPayment": "문제가 발생했습니다 클럽이 지불 통합에 가입했는지 확인하십시오.",
    "Alert_Text_TicketSoldOut": "이벤트 티켓은 매진",
    "Alert_Text_TimeOut": "귀하의 요청 시간 초과 시간에 다시 시도하십시오..",
    "Alert_Title_AccountUpdated": ". 정보 다시 로그인하십시오 업데이트 된 계정",
    "Alert_Title_AddPlayer": "계속 선수를 추가",
    "Alert_Title_AddPromo": "Loggedin 없음",
    "Alert_Title_AppUpdate": "응용 프로그램 업데이트",
    "Alert_Title_AvailableTickets": "사용 가능한 티켓 수 :",
    "Alert_Title_AvailableTickets1": ". 당신은 이미",
    "Alert_Title_AvailableTickets2": "당신은 카트입니다.",
    "Alert_Title_FinalPrice": "당신의 마지막 티켓 가격은",
    "Alert_Title_PaymentFail": "결제 실패",
    "Alert_Title_PaymentSuccess": "지불 성공",
    "Alert_Title_PurchasedTickets": "이벤트 당 구매 가능한 티켓 수 :",
    "Alert_Title_ReAuthenticate": "재 인증이 필요합니다",
    "Alert_Title_TicketSoldOut": "이벤트 티켓은 매진",
    "Alert_Title_TimeOut": "타임 아웃",
    "Alert_Title_Unsupported": "지원되지 않는 버전",
    "CALENDAR_TITLE": "달력",
    "Calender_label_NextEvents": "다음 이벤트",
    "Coaches_Label_Nodata": "현재 사용할 수없는 전문가 목록. 계속 지켜봐주십시오!",
    "EventBookingDetails_title": "내 이벤트 예약 상세",
    "EventTickets_Label_Nodata": "아직 이벤트를 예약하지 않았습니다.",
    "FacilityBooking_Label_Upadte": "업데이트 예약",
    "FoodnBeverages_Label_RestaurantMenu": "레스토랑 메뉴",
    "Forum_Label_NoData": "표시 할 포럼 없음",
    "GlofCoaches_Title": "장거리",
    "Golf_Label_Nodata": "골프 설정 정보를 사용할 수 없습니다.",
    "Label_Resend_Email": "이메일을 다시 보내기",
    "Label_TapToClose": "응용 프로그램을 닫으려면 다시 살짝 누르십시오",
    "Label_Today": "오늘",
    "Media_Label_NoData": "현재 표시 할 피드가 없습니다. 계속 조정하십시오!",
    "Menu_Button_Coaches": "장거리",
    "Register_Label_MemberType": "회원 유형",
    "Register_Option_Primary": "기본 회원",
    "Register_Option_Secondary": "종속 / 차 회원",
    "Register_Text_TermsAndConditions": "이용 약관.",
    "Scorecard_Label_Nodata": "현재 볼 스코어 카드가 없습니다.",
    "SpinDialog_PaymentInit": "초기화 지불 을",
    "SpinDialog_PaymentMake": "지불 을 만들기",
    "SpinDialog_PaymentServerFetching": "가져 오기 지불 서버 세부 ...",
    "Sponsors_Label_NoData": "현재 스폰서가 없습니다.",
    "Tournament_Button_AddPlayer": "선수 추가",
    "Tournament_Button_SelectSlot": "선택 슬롯",
    "Tournament_Label_AvailableSlots": "사용 가능한 슬롯",
    "Tournament_Label_Category": "카테고리",
    "TournamentsDetails_Title": "대회 세부 사항",
    "ValidationError_GenderBlank": "성별은 비워 둘 수 없습니다.",
    "ValidationError_MembershipOption": "적어도 하나의 옵션을 선택하세요",
    "Alert_Title_Tee_Time": "사용할 수없는 티 타임 예약 시설",
    "Alert_Message_Tee_Time": "티 시간 예약 기능은 설정되어 있지 않은 자세한 내용은 클럽에 문의하시기 바랍니다..",
    "Alert_Title_MakeCallAction": "전화 걸기?",
    "Alert_Title_SendEmailAction": "이메일을 보내?",
    "Alert_Title_openUrlAction": "이 URL을 엽니 다?",
    "ValidationError_ValidTicketQuantity": "전체 티켓은 0보다 커야합니다",
    "Tournaments_Label_NoRegister": "당신은 어떤 대회에 등록하지 않았습니다",
    "ValidationError_TeeNotSelected": "올바른 카테고리를 선택하세요",
    "ValidationError_CategoryNotSelected": "유효한 티를 선택하십시오.",
    "MyAccount_Label_MembershipType": "회원 유형",
    "MyAccount_Label_MemberType": "회원 유형",
    "MyAccount_Label_DocNum": "문서 번호",
    "MyAccount_Label_DocDate": "날짜",
    "MyAccount_Label_Particular": "특정 옵션",
    "MyAccount_Label_DrCr": "박사 / CR",
    "Golf_Label_MarkScore": "를 마크 점수",
    "Alert_Title_Livesocre_Url": "URL을 사용하도록 설정하는 클럽",
    "Alert_Message_Livescore_Url": "URL이 구성되지 않은 라이브 점수 클럽 관리자에게 문의하십시오.",
    "GolfCourse_Label_TeeBoxes": "Tee",
    "Scorecard_Text_Rounds": "Round",
    "ValidationError_RoundBlank": "유효한 라운드를 선택하십시오",
    "Label_TeePlayers": "플레이어",
    "Directory_Button_Members": "회원",
    "Directory_Button_Conversation": "메시지",
    "Directory_Button_Invites": "초대",
    "Menu_Button_ConnectPeople": "회원과 연결",
    "ConnectPeople_Title": "회원과 연결",
    "Menu_Button_EventsTickets": "이벤트 티켓",
    "ValidationError_SlotSelection": "올바른 슬롯을 선택하십시오.",
    "Tournament_Registration_Details_Not_Available": "Tournamennt 등록 정보를 사용할 수 없습니다",
    "Tournament_No_Seats_Left": "미안합니다. 좌석이 없습니다.",
    "Tournament_Need_To_Login": "등록하려면 로그인해야합니다.",
    "Label_LastUpdatedBy": "마지막으로 업데이트 한 사람",
    "Connect_Label_NoData": "현재 연결할 구성원이 없습니다.",
    "Member_Label_NoData Member": "현재 앱에 등록 된 회원이 없습니다.",
    "Invite_Label_NoData": "현재 보류중인 초대가 없습니다.",
    "GolfCourse_Label_Rules": "규칙",
    "MyAccount_Label_Dr": "차변",
    "MyAccount_Label_Cr": "크레디트",
    "GolfCourse_Label_TeeBox": "티 박스",
    "ValidationError_TeeNotSelected": "유효한 Tee 박스를 선택하십시오",
    "Golf_Scorecard_Add_button": "새 스코어 카드 추가",
    "Golf_Scorecard_Create_button": "채점 시작",
    "Golf_Scorecard_Label_TableView": "카드보기",
    "Golf_Scorecard_Label_Submitted": "제출 됨",
    "GolfCourse_Label_TotalPar": "총 파",
    "Scorecard_Text_Start_From": "출발지",
    "Golf_Scorecard_Label_Progress": "진행 중",
    "Scorecard_Text_TeeTime": "시간",
    "Alert_Text_SubmitScore_HoleCheck": "스코어 카드를 제출하려면 최소한 9 개의 홀을 플레이해야합니다.",
    "Golf_Timesheet_Title": "작업 표",
    "Menu_Button_Tournaments_caps": "토너먼트",
    "GolfCourse_Title_caps": "코스",
    "Facility_Button_MyBookings_caps": "예약",
    "Directory_Button_Invites_caps": "초대",
    "Directory_Button_Conversation_caps": "메시지",
    "Menu_Button_Events_caps": "이벤트",
    "Menu_Button_Settings": "설정",
    "Settings_Button_PrivacySettings": "개인 정보",
    "Settings_Title": "설정",
    "Handicap_Title_caps": "핸디캡",
    "FoodnBeverages_Title_caps": "F & B",
    "ContactUs_Title_caps": "연락처",
    "TeeTime_Title_caps": "티 타임",
    "Menu_Button_Notifications_caps": "알림",
    "Menu_Button_News_caps": "뉴스",
    "Account_Button_Transactions_caps": "거래",
    "Menu_Button_ScoreCards_caps": "스코어 카드",
    "Login_Text_CheckBox_Remember": "날 기억해",
    "Alert_Title_Reject_Invite": "초대 거부",
    "Alert_Message_Reject_Invite": "이 연결 요청을 거부 하시겠습니까?",
    "Blogs_Title_caps": "블로그",
    "EditPrivacy_Title": "개인 정보 설정",
    "Account_Button_Bills": "지폐",
    "MembershipInfo_Title": "회원 정보",
    "Account_Button_PayNow_Bills": "지금 지불",
    "Menu_Button_Invite_Download": "앱 공유",
    "Label_Location": "위치"
}